Place,WeightClassKg,Sex,Name,BirthYear,BodyweightKg,Country,Squat1Kg,Squat2Kg,Squat3Kg,Best3SquatKg,Bench1Kg,Bench2Kg,Bench3Kg,Best3BenchKg,Deadlift1Kg,Deadlift2Kg,Deadlift3Kg,Best3DeadliftKg,TotalKg,Division,Event,Equipment
1,44,F,Inna Filimonova #2,1994,43.98,Russia,115,125,-135,125,70,75,77.5,77.5,120,130,132.5,132.5,335,Sub-Juniors,SBD,Single-ply
2,44,F,Wei-Jou Chen,1991,42.42,Taiwan,120,-125,-125,120,60,65,-72.5,65,125,132.5,-140,132.5,317.5,Sub-Juniors,SBD,Single-ply
3,44,F,Lyudmyla Bakal,1994,43.92,Ukraine,110,120,125,125,67.5,72.5,-75,72.5,110,120,-127.5,120,317.5,Sub-Juniors,SBD,Single-ply
4,44,F,Katarina Skirkanicova,1990,43.48,Slovakia,115,125,-135,125,55,60,-62.5,60,110,-117.5,-120,110,295,Sub-Juniors,SBD,Single-ply
5,44,F,Éva Makrai,1990,43.42,Hungary,90,97.5,102.5,102.5,76,80,82.5,82.5,90,100,-110,100,285,Sub-Juniors,SBD,Single-ply
DQ,44,F,Sommer Binash,1990,43.64,USA,112.5,-117.5,-117.5,112.5,52.5,55,-57.5,55,-115,-115,-115,,,Sub-Juniors,SBD,Single-ply
DQ,44,F,Konio Mea Dobi,1991,43.46,Papua New Guinea,-125,130,140,140,-45,-47.5,-47.5,,-115,-115,115,115,,Sub-Juniors,SBD,Single-ply
1,48,F,Ekaterina Osipova,1991,47.96,Russia,135,150,157.5,157.5,70,77.5,85,85,125,140,-147.5,140,382.5,Sub-Juniors,SBD,Single-ply
2,48,F,Tamara Stenkova,1992,46.64,Ukraine,115,125,-130,125,65,70,75,75,120,130,-135,130,330,Sub-Juniors,SBD,Single-ply
3,48,F,Michelle Van Dusen,1993,46.44,USA,125,130,135,135,52.5,-60,-60,52.5,130,-140,-147.5,130,317.5,Sub-Juniors,SBD,Single-ply
4,48,F,Britta Carlson,1991,46.8,USA,112.5,-122.5,122.5,122.5,62.5,-65,-65,62.5,120,130,-135,130,315,Sub-Juniors,SBD,Single-ply
5,48,F,Iryna Khlebodarova,1990,47.4,Ukraine,125,-130,-130,125,60,-65,65,65,115,122.5,-130,122.5,312.5,Sub-Juniors,SBD,Single-ply
6,48,F,Kenia Monserrate,1991,47.18,Ecuador,120,-130,-130,120,50,-52.5,-52.5,50,115,125,132.5,132.5,302.5,Sub-Juniors,SBD,Single-ply
7,48,F,Victoria Fadgyas,1991,46.46,Hungary,90,100,-105,100,70,75,-77.5,75,95,105,-110,105,280,Sub-Juniors,SBD,Single-ply
8,48,F,Yasuko Miki,1990,45.42,Japan,90,-100,100,100,55,60,-65,60,105,112.5,-115,112.5,272.5,Sub-Juniors,SBD,Single-ply
9,48,F,Chloe Lambeth,1990,44.2,UK,87.5,95,-102.5,95,42.5,47.5,50,50,102.5,112.5,-117.5,112.5,257.5,Sub-Juniors,SBD,Single-ply
10,48,F,Ivana Porubska,1991,47.14,Slovakia,90,-105,-110,90,65,70,75,75,90,-100,-100,90,255,Sub-Juniors,SBD,Single-ply
11,48,F,Kozue Nemoto,1992,44.82,Japan,70,77.5,82.5,82.5,42.5,45,-47.5,45,105,117.5,-125,117.5,245,Sub-Juniors,SBD,Single-ply
1,52,F,Alexa Schillinger,1991,50.76,USA,142.5,-147.5,150,150,65,70,72.5,72.5,140,145,152.5,152.5,375,Sub-Juniors,SBD,Single-ply
2,52,F,Ekaterina Androsova,1991,50.94,Russia,-135,-135,135,135,80,87.5,-92.5,87.5,120,-130,130,130,352.5,Sub-Juniors,SBD,Single-ply
3,52,F,Natalia Melnikova,1992,51.46,Russia,-130,130,135,135,67.5,75,-77.5,75,112.5,127.5,-132.5,127.5,337.5,Sub-Juniors,SBD,Single-ply
DQ,52,F,Yoriko Sakamaki,1990,50.2,Japan,75,90,-100,90,-62.5,-62.5,-62.5,,95,105,-120,105,,Sub-Juniors,SBD,Single-ply
DQ,52,F,Ganna Gonchar,1993,50.92,Ukraine,120,130,135,135,-85,85,90,90,-110,-110,-110,,,Sub-Juniors,SBD,Single-ply
1,56,F,Kendra Miller,1992,54.58,USA,142.5,-150,-155,142.5,75,77.5,80,80,135,145,150,150,372.5,Sub-Juniors,SBD,Single-ply
2,56,F,Yana Talybova,1991,54.96,Russia,-140,140,150,150,70,-77.5,-77.5,70,127.5,-140,-150,127.5,347.5,Sub-Juniors,SBD,Single-ply
3,56,F,Liezl Pretoruis,1990,53.1,South Africa,122.5,-127.5,130,130,67.5,-70,-70,67.5,120,125,-127.5,125,322.5,Sub-Juniors,SBD,Single-ply
4,56,F,Chia-Jing Yang,1991,55.54,Taiwan,115,120,-130,120,-55,55,-60,55,140,145,-147.5,145,320,Sub-Juniors,SBD,Single-ply
5,56,F,Momoko Sugo,1990,52.36,Japan,110,-120,120,120,60,-70,-75,60,125,132.5,137.5,137.5,317.5,Sub-Juniors,SBD,Single-ply
1,60,F,Lidiya Chukhonastova,1993,58.16,Russia,130,137.5,-140,137.5,67.5,72.5,77.5,77.5,140,147.5,152.5,152.5,367.5,Sub-Juniors,SBD,Single-ply
2,60,F,Samanta Kondratenko,1990,58.48,Lithuania,110,-120,120,120,70,-75,75,75,140,150,155,155,350,Sub-Juniors,SBD,Single-ply
3,60,F,Sheila Hinz,1990,59.02,USA,-122.5,-127.5,127.5,127.5,60,65,-70,65,150,-157.5,-160,150,342.5,Sub-Juniors,SBD,Single-ply
4,60,F,Marina Kainleinsberger,1990,58.8,Austria,115,-122.5,125,125,75,-80,80,80,110,120,-125,120,325,Sub-Juniors,SBD,Single-ply
5,60,F,Chika Okudo,1991,56.76,Japan,80,-95,95,95,45,50,-55,50,105,115,120,120,265,Sub-Juniors,SBD,Single-ply
6,60,F,Masami Kuboe,1990,59.1,Japan,70,-80,-80,70,40,45,-50,45,110,120,-130,120,235,Sub-Juniors,SBD,Single-ply
1,67.5,F,Kamie Bluell,1991,67.4,USA,145,155,160,160,-60,62.5,-67.5,62.5,147.5,-160,170,170,392.5,Sub-Juniors,SBD,Single-ply
2,67.5,F,Viktoriya Gavrina,1990,66.26,Russia,145,-155,-155,145,77.5,82.5,87.5,87.5,142.5,152.5,157.5,157.5,390,Sub-Juniors,SBD,Single-ply
3,67.5,F,Narine Arushanova,1991,63.22,Russia,150,157.5,160,160,75,77.5,-80,77.5,150,-160,-160,150,387.5,Sub-Juniors,SBD,Single-ply
4,67.5,F,Kaitlyn Flaherty,1990,63.28,USA,117.5,127.5,137.5,137.5,57.5,70,-80,70,127.5,-142.5,147.5,147.5,355,Sub-Juniors,SBD,Single-ply
5,67.5,F,Mikiko Suzuki,1990,60.22,Japan,-105,105,120,120,47.5,60,-70,60,110,120,-125,120,300,Sub-Juniors,SBD,Single-ply
1,75,F,Amanda Moe,1990,72.52,USA,-157.5,-157.5,157.5,157.5,55,70,75,75,140,165,167.5,167.5,400,Sub-Juniors,SBD,Single-ply
2,75,F,Misaki Onoe,1990,71.48,Japan,-115,120,-130,120,47.5,55,60,60,110,125,140,140,320,Sub-Juniors,SBD,Single-ply
3,75,F,Azusa Takano,1991,71.28,Japan,110,120,-130,120,-60,60,-70,60,120,130,-132.5,130,310,Sub-Juniors,SBD,Single-ply
1,82.5,F,Olena Kozlova,1990,75.34,Ukraine,190,210,221,221,-115,115,,115,201,215,225,225,561,Sub-Juniors,SBD,Single-ply
2,82.5,F,Hsin-Ju Kiu,1990,78.28,Taiwan,150,162.5,172.5,172.5,90,97.5,102.5,102.5,145,150,-160,150,425,Sub-Juniors,SBD,Single-ply
3,82.5,F,Katarzyna Pulut,1990,75.16,Poland,150,160,170,170,-60,60,-67.5,60,140,145,150,150,380,Sub-Juniors,SBD,Single-ply
4,82.5,F,Cecile-May Smith,1992,82.26,South Africa,-145,-145,145,145,60,70,75,75,140,147.5,-162.5,147.5,367.5,Sub-Juniors,SBD,Single-ply
1,90,F,Dinara Zinikova,1991,85.62,Russia,175,185,195,195,80,90,97.5,97.5,150,162.5,170,170,462.5,Sub-Juniors,SBD,Single-ply
2,90,F,Alexandra Tichy,1990,82.82,Austria,-160,160,170,170,100,-107.5,107.5,107.5,140,155,-162.5,155,432.5,Sub-Juniors,SBD,Single-ply
DQ,90,F,Emmi Lund,1990,89.74,Finland,-120,-125,-130,,70,-77.5,-77.5,70,120,-132.5,-132.5,120,,Sub-Juniors,SBD,Single-ply
1,90+,F,Jie-Wen Chen,1990,120.26,Taiwan,200,205,212.5,212.5,120,130,-139,130,170,177.5,185,185,527.5,Sub-Juniors,SBD,Single-ply
2,90+,F,Crystal Costello,1990,116.38,USA,175,187.5,197.5,197.5,90,97.5,100,100,175,190,202.5,202.5,500,Sub-Juniors,SBD,Single-ply
DQ,90+,F,Samantha Viteri,1990,118.16,Ecuador,-190,-190,-190,,,,,,,,,,,Sub-Juniors,SBD,Single-ply
1,56,M,Edward Arismendi,1986,55.68,Venezuela,190,200,205,205,-130,130,135,135,225,237.5,242.5,242.5,582.5,Juniors,SBD,Single-ply
2,56,M,Sergey Levin,1987,55.94,Russia,205,212.5,217.5,217.5,142.5,152.5,157.5,157.5,195,202.5,207.5,207.5,582.5,Juniors,SBD,Single-ply
3,56,M,Tomasz Zambrzycki,1985,55.64,Poland,200,215,220,220,100,107.5,110,110,200,-210,-210,200,530,Juniors,SBD,Single-ply
4,56,M,Masahiro Nagata,1987,54.94,Japan,150,155,157.5,157.5,145,-152.5,152.5,152.5,160,-165,-165,160,470,Juniors,SBD,Single-ply
5,56,M,Ryo Mikawa,1986,55.38,Japan,175,-190,-190,175,90,-100,-100,90,160,170,175,175,440,Juniors,SBD,Single-ply
DQ,56,M,Billy Naquin,1989,54.8,USA,187.5,-192.5,-192.5,187.5,92.5,102.5,-107.5,102.5,-205,-205,-205,,,Juniors,SBD,Single-ply
1,60,M,Michael Kuhns,1985,58.66,USA,240,255,-260,255,-187.5,187.5,-190,187.5,150,160,172.5,172.5,615,Juniors,SBD,Single-ply
2,60,M,Emanuel Taylor,1987,59.72,USA,220,232.5,-242.5,232.5,-140,140,-145,140,212.5,227.5,-245,227.5,600,Juniors,SBD,Single-ply
3,60,M,Aman Kapyshev,1987,59.9,Kazakhstan,215,230,237.5,237.5,-130,-130,130,130,180,190,202.5,202.5,570,Juniors,SBD,Single-ply
4,60,M,Kentaro Nagase,1986,59.65,Japan,195,210,-215,210,122.5,130,-135,130,200,212.5,-230,212.5,552.5,Juniors,SBD,Single-ply
5,60,M,Scott Peisley,1989,59.54,Australia,155,162.5,-170,162.5,100,-105,-105,100,212.5,-220,220,220,482.5,Juniors,SBD,Single-ply
DQ,60,M,Jacek Olechnio,1990,59.74,Poland,-220,-220,-220,,120,130,-135,130,220,-225,-225,220,,Juniors,SBD,Single-ply
1,67.5,M,Arthur Mashinskiy,1987,67.14,Russia,270,-280,280,280,175,182.5,187.5,187.5,250,262.5,270,270,737.5,Juniors,SBD,Single-ply
2,67.5,M,Lenin La Rosa,1985,67.02,Venezuela,245,255,-262.5,255,175,-182.5,182.5,182.5,260,265,-267.5,265,702.5,Juniors,SBD,Single-ply
3,67.5,M,Ryohei Kume,1988,65.02,Japan,180,195,202.5,202.5,150,162.5,-172.5,162.5,170,177.5,-190,177.5,542.5,Juniors,SBD,Single-ply
4,67.5,M,Dane Bax,1986,66.12,South Africa,160,170,-180,170,120,-130,-130,120,190,-210,-210,190,480,Juniors,SBD,Single-ply
5,67.5,M,Justice Dlule,1987,62.94,South Africa,160,170,-180,170,95,102.5,107.5,107.5,160,167.5,-175,167.5,445,Juniors,SBD,Single-ply
DQ,67.5,M,Alexander Ivashnev,1985,66.72,Russia,270,282.5,-290,282.5,-155,155,-162.5,155,-250,-260,-260,,,Juniors,SBD,Single-ply
DQ,67.5,M,Vincent Niedoliwka,1989,66.86,USA,262.5,-267.5,-267.5,262.5,165,-172.5,-175,165,-260,-260,-260,,,Juniors,SBD,Single-ply
DQ,67.5,M,Maksym Masyuk,1989,66.54,Ukraine,-265,-272.5,-272.5,,165,-172.5,-172.5,165,230,250,-260,250,,Juniors,SBD,Single-ply
1,75,M,José Castillo,1986,74.3,Ecuador,-277.5,280,-290,280,-175,-175,175,175,270,280,287.5,287.5,742.5,Juniors,SBD,Single-ply
2,75,M,Petteri Keränen,1987,73.34,Finland,250,267.5,275,275,155,-167.5,-167.5,155,260,275,290,290,720,Juniors,SBD,Single-ply
3,75,M,Mykola Barannik,1989,73.26,Ukraine,280,292.5,-300,292.5,175,182.5,185,185,240,-250,-250,240,717.5,Juniors,SBD,Single-ply
4,75,M,Vadzim Bizukovich,1989,74.2,Belarus,280,-295,-302.5,280,155,165,-170,165,255,267.5,-275,267.5,712.5,Juniors,SBD,Single-ply
5,75,M,Samuel Lappalainen,1986,74.94,Finland,260,270,275,275,155,-160,160,160,260,270,-275,270,705,Juniors,SBD,Single-ply
6,75,M,Jakub Sedláček,1988,73.82,Czechia,250,-270,-272.5,250,175,182.5,-187.5,182.5,225,-240,-240,225,657.5,Juniors,SBD,Single-ply
7,75,M,Tomoya Takanashi,1987,73.66,Japan,225,235,240,240,140,145,-150,145,205,220,-225,220,605,Juniors,SBD,Single-ply
8,75,M,Kazuhiro Ishikawa,1985,73.92,Japan,210,-227.5,-230,210,-135,140,150,150,210,220,-247.5,220,580,Juniors,SBD,Single-ply
9,75,M,John Strachan,1988,71.98,New Zealand,-210,210,-240,210,130,140,-145,140,200,210,222.5,222.5,572.5,Juniors,SBD,Single-ply
10,75,M,Joel Ridings,1989,72.94,Australia,210,-225,-225,210,-125,132.5,-137.5,132.5,190,-210,-210,190,532.5,Juniors,SBD,Single-ply
DQ,75,M,Mathinus Vermaak,1987,74.82,South Africa,-220,-230,-230,,125,130,-142.5,130,220,235,-242.5,235,,Juniors,SBD,Single-ply
DQ,75,M,François Pellegrino,1988,73.04,France,-255,262.5,-270,262.5,170,180,185,185,-255,-255,-255,,,Juniors,SBD,Single-ply
DQ,75,M,Maliek Derstine,1988,74.88,USA,-265,-265,-265,,177.5,-192.5,192.5,192.5,272.5,-277.5,290,290,,Juniors,SBD,Single-ply
1,82.5,M,Alexey Sorokin,1985,82.12,Russia,330,345,-352.5,345,190,197.5,202.5,202.5,280,-290,290,290,837.5,Juniors,SBD,Single-ply
2,82.5,M,Dmytro Semenenko,1988,81.56,Ukraine,-320,320,335,335,180,187.5,192.5,192.5,280,290,295,295,822.5,Juniors,SBD,Single-ply
3,82.5,M,Konstantin Fairushin,1985,81.8,Kazakhstan,-295,295,307.5,307.5,190,197.5,-205,197.5,-300,300,-320,300,805,Juniors,SBD,Single-ply
4,82.5,M,Daniel Miller,1988,80.81,Poland,-310,310,-325,310,195,202.5,-207.5,202.5,-270,270,-292.5,270,782.5,Juniors,SBD,Single-ply
5,82.5,M,Dustin Witte,1986,81.64,USA,280,292.5,-305,292.5,160,167.5,-175,167.5,285,300,305,305,765,Juniors,SBD,Single-ply
6,82.5,M,Yuki Fukushima,1986,80.34,Japan,237.5,255,-265,255,-215,215,225,225,230,245,-250,245,725,Juniors,SBD,Single-ply
7,82.5,M,Simen Imingen,1987,80.72,Norway,270,277.5,282.5,282.5,175,-180,-180,175,255,262.5,-265,262.5,720,Juniors,SBD,Single-ply
8,82.5,M,Gilles Pinheiro,1987,80.44,France,265,275,-282.5,275,145,-152.5,157.5,157.5,265,-280,280,280,712.5,Juniors,SBD,Single-ply
9,82.5,M,Lucero Acosta Eleuterio,1985,81.4,USA,255,-275,-277.5,255,165,172.5,-185,172.5,285,-302.5,-302.5,285,712.5,Juniors,SBD,Single-ply
10,82.5,M,Daniel Augusto dos Santos,1985,81.96,Brazil,272.5,-287.5,297.5,297.5,160,170,-175,170,232.5,240,-247.5,240,707.5,Juniors,SBD,Single-ply
11,82.5,M,Taofiki Lawal,1987,77.44,Nigeria,-235,-235,235,235,155,170,175,175,220,-230,230,230,640,Juniors,SBD,Single-ply
12,82.5,M,Nathan Clarke,1987,81.08,UK,200,-215,-215,200,115,-120,120,120,230,240,-245,240,560,Juniors,SBD,Single-ply
13,82.5,M,Nick Shotton-Gale,1985,81.54,UK,185,195,205,205,130,-137.5,137.5,137.5,185,200,-210,200,542.5,Juniors,SBD,Single-ply
14,82.5,M,Sunday Amos,1989,79,Nigeria,-200,-200,200,200,140,150,-165,150,190,-230,-230,190,540,Juniors,SBD,Single-ply
DQ,82.5,M,Emil Johansson,1986,79.06,Sweden,-280,-280,-285,,-190,-190,-190,,,,,,,Juniors,SBD,Single-ply
1,90,M,Vladimir Sholskiy,1985,88.66,Russia,340,360,370,370,215,222.5,227.5,227.5,292.5,307.5,-312.5,307.5,905,Juniors,SBD,Single-ply
2,90,M,Yuriy Arkhipov,1985,88.28,Russia,325,335,-345,335,220,227.5,232.5,232.5,-320,-320,320,320,887.5,Juniors,SBD,Single-ply
3,90,M,Dmytro Chumakov,1985,89.1,Ukraine,-325,335,342.5,342.5,195,-205,-207.5,195,-280,280,-295,280,817.5,Juniors,SBD,Single-ply
4,90,M,Justin Walker,1986,89.6,USA,-287.5,292.5,305,305,170,180,190,190,275,285,297.5,297.5,792.5,Juniors,SBD,Single-ply
5,90,M,Brady Singleton,1986,89.68,USA,-257.5,257.5,265,265,175,-195,-195,175,255,272.5,277.5,277.5,717.5,Juniors,SBD,Single-ply
6,90,M,Andreas Jandorek,1985,88.48,Austria,245,255,-265,255,-185,185,-195,185,245,260,265,265,705,Juniors,SBD,Single-ply
7,90,M,Kohei Hayashi,1986,87.94,Japan,225,240,255,255,-200,205,-227.5,205,175,200,207.5,207.5,667.5,Juniors,SBD,Single-ply
8,90,M,Bernhard Berger,1989,85.64,Austria,260,275,-280,275,150,-155,-155,150,240,-260,-260,240,665,Juniors,SBD,Single-ply
9,90,M,Ettienne Potgieter,1986,87.06,South Africa,220,240,250,250,160,165,-170,165,220,240,-250,240,655,Juniors,SBD,Single-ply
10,90,M,Frank Van Laarhoven,1986,87.58,Netherlands,210,220,-225,220,135,142.5,150,150,210,-215,-215,210,580,Juniors,SBD,Single-ply
11,90,M,Po-Wen Hu,1985,87.82,Taiwan,-250,250,-280,250,115,-125,-125,115,210,-215,-215,210,575,Juniors,SBD,Single-ply
1,100,M,José Mencias,1987,99.12,Venezuela,300,310,317.5,317.5,-225,225,-232.5,225,310,325,-337.5,325,867.5,Juniors,SBD,Single-ply
2,100,M,Maciej Sochacki,1985,91.22,Poland,290,300,310,310,190,197.5,202.5,202.5,280,290,-300,290,802.5,Juniors,SBD,Single-ply
3,100,M,Mark Gregory,1986,99,UK,280,300,312.5,312.5,210,220,-227.5,220,240,247.5,255,255,787.5,Juniors,SBD,Single-ply
4,100,M,Chris Caltabiano,1987,99.08,Australia,-240,240,265,265,220,-230,-232.5,220,250,270,280,280,765,Juniors,SBD,Single-ply
5,100,M,Cardyll Trionfonte,1985,99.94,USA,260,275,292.5,292.5,170,182.5,-200,182.5,265,285,-300,285,760,Juniors,SBD,Single-ply
6,100,M,Daniel MacInnis,1985,97.4,Canada,-272.5,282.5,295,295,170,177.5,-185,177.5,275,-292.5,-297.5,275,747.5,Juniors,SBD,Single-ply
7,100,M,Nozomu Yoshikawa,1986,90.1,Japan,255,265,-272.5,265,-225,-225,225,225,230,240,-245,240,730,Juniors,SBD,Single-ply
8,100,M,Yosuke Nishikawa,1985,92.5,Japan,245,255,-262.5,255,145,155,160,160,280,292.5,295,295,710,Juniors,SBD,Single-ply
9,100,M,Balázs Toth,1987,99.64,Hungary,230,-240,240,240,200,-210,-210,200,230,245,-257.5,245,685,Juniors,SBD,Single-ply
10,100,M,Torben Olsson,1989,98.6,Netherlands,240,260,-270,260,165,-172.5,172.5,172.5,220,240,-252.5,240,672.5,Juniors,SBD,Single-ply
11,100,M,Franz Rusch,1988,98.26,South Africa,200,225,-235,225,-135,135,152.5,152.5,265,-290,-307.5,265,642.5,Juniors,SBD,Single-ply
12,100,M,Johann Enthammer,1987,94.06,Austria,210,230,-240,230,150,157.5,-165,157.5,230,240,-252.5,240,627.5,Juniors,SBD,Single-ply
DQ,100,M,Yevgeniy Zolotarev,1985,91.88,Kazakhstan,322.5,332.5,-337.5,332.5,-192.5,-192.5,-192.5,,-262.5,262.5,-280,262.5,,Juniors,SBD,Single-ply
DQ,100,M,Muhamued Ibrahim,1985,95.58,Nigeria,220,-250,-260,220,,,,,,,,,,Juniors,SBD,Single-ply
DQ,100,M,Eero Halunen,1986,92.7,Finland,-270,-280,-290,,215,-225,-225,215,-260,-270,-282.5,,,Juniors,SBD,Single-ply
DQ,100,M,Alexey Kudryavtsev,1988,94.94,Russia,-335,-335,-335,,-190,190,205,205,320,330,337.5,337.5,,Juniors,SBD,Single-ply
1,110,M,Vladimir Golubev,1986,106.84,Kazakhstan,-350,350,360,360,212.5,217.5,-222.5,217.5,300,-307.5,307.5,307.5,885,Juniors,SBD,Single-ply
2,110,M,Jørgen Andreas Hansen,1986,110,Norway,-325,325,335,335,207.5,215,220,220,275,285,292.5,292.5,847.5,Juniors,SBD,Single-ply
3,110,M,Oleksandr Bogdanov,1987,108.86,Ukraine,-335,-335,335,335,180,190,-195,190,280,-305,-305,280,805,Juniors,SBD,Single-ply
4,110,M,Guy Djedje,1988,107.3,UK,-250,250,262.5,262.5,200,220,-232.5,220,260,280,-302.5,280,762.5,Juniors,SBD,Single-ply
5,110,M,Justin Lovell,1987,102.22,Canada,-272.5,272.5,-280,272.5,200,-210,-210,200,270,-280,280,280,752.5,Juniors,SBD,Single-ply
6,110,M,Bartlomiej Zajaczkowski,1989,100.22,Poland,-260,260,280,280,155,170,185,185,-260,260,277.5,277.5,742.5,Juniors,SBD,Single-ply
7,110,M,Gabor Csik,1987,108.54,Hungary,240,-250,250,250,-230,-232.5,235,235,205,220,235,235,720,Juniors,SBD,Single-ply
8,110,M,Alex da Silva,1985,109.16,Brazil,190,-210,-210,190,130,-145,150,150,170,-205,-205,170,510,Juniors,SBD,Single-ply
DQ,110,M,Jere Lietzén,1985,105.44,Finland,260,270,285,285,-210,-210,-210,,280,290,-307.5,290,,Juniors,SBD,Single-ply
1,125,M,Andrey Drachev,1985,118.42,Russia,350,365,-380,365,245,,,245,330,,,330,940,Juniors,SBD,Single-ply
2,125,M,Mattias Westberg,1985,124,Sweden,330,-350,350,350,220,225,-240,225,275,-285,-285,275,850,Juniors,SBD,Single-ply
3,125,M,Haakon Farstad,1985,124.35,Norway,-307.4,315,-322.5,315,200,207.5,212.5,212.5,300,307.5,-315,307.5,835,Juniors,SBD,Single-ply
4,125,M,Jari Saario,1985,123.32,Finland,285,295,-302.5,295,-215,215,225,225,295,-307.5,-315,295,815,Juniors,SBD,Single-ply
5,125,M,Asad Al-Saadi,1986,118.36,Oman,275,-285,-285,275,100,115,130,130,200,220,-230,220,625,Juniors,SBD,Single-ply
DQ,125,M,Thando Makheta,1986,119.54,South Africa,-260,-280,-280,,160,165,170,170,240,-255,,240,,Juniors,SBD,Single-ply
DQ,125,M,Ruwan Kleinsmit,1987,122.72,South Africa,300,-320,-322.5,300,-210,-260,-260,,300,310,-315,310,,Juniors,SBD,Single-ply
1,125+,M,Daniel Grabowski,1986,128.24,Poland,360,380,-400,380,220,-235,240,240,320,340,350,350,970,Juniors,SBD,Single-ply
2,125+,M,Andrey Konovalov #1,1986,144.4,Russia,370,-382.5,-382.5,370,265,275,280,280,310,320,-327.5,320,970,Juniors,SBD,Single-ply
3,125+,M,Juuso Martikainen,1985,125.6,Finland,300,315,330,330,210,220,-225,220,290,-302.5,305,305,855,Juniors,SBD,Single-ply
4,125+,M,Anton Dubrovskyy,1986,138.32,Ukraine,305,317.5,327.5,327.5,180,192.5,202.5,202.5,312.5,-325,-327.5,312.5,842.5,Juniors,SBD,Single-ply
5,125+,M,Aidh Ali Mahfoodh Al Mandhari,1985,127,Oman,280,-305,-305,280,135,155,-165,155,-220,220,-245,220,655,Juniors,SBD,Single-ply
6,125+,M,Faisal Spaul,1988,127.06,UK,-230,230,-250,230,150,160,-170,160,180,210,220,220,610,Juniors,SBD,Single-ply
DQ,125+,M,Hadi Zoltan,1989,150,Hungary,-240,250,-265,250,-205,215,-225,215,-215,-215,-215,,,Juniors,SBD,Single-ply
1,52,M,Kirill Krut,1991,52,Russia,180,-195,197.5,197.5,95,100,-102.5,100,155,165,172.5,172.5,470,Sub-Juniors,SBD,Single-ply
2,52,M,David Gianna,1990,49.68,France,-150,-150,150,150,82.5,-90,-90,82.5,-150,150,167.5,167.5,400,Sub-Juniors,SBD,Single-ply
3,52,M,Hiroki Ikegami,1991,51.92,Japan,-140,140,-152.5,140,80,-85,-85,80,135,150,-152.5,150,370,Sub-Juniors,SBD,Single-ply
4,52,M,Vadzim Likharad,1992,50.68,Belarus,120,-130,-130,120,70,-80,,70,120,-130,-130,120,310,Sub-Juniors,SBD,Single-ply
1,56,M,Chun-Lin Wang,1990,55.36,Taiwan,190,200,207.5,207.5,110,115,120,120,200,212.5,-222.5,212.5,540,Sub-Juniors,SBD,Single-ply
2,56,M,Phillip Rotar,1991,54.48,USA,170,180,-195,180,95,102.5,107.5,107.5,167.5,180,190,190,477.5,Sub-Juniors,SBD,Single-ply
3,56,M,Danilo F. Batista Costa,1991,55.96,Brazil,145,165,-180,165,90,-100,-100,90,192.5,210,-225,210,465,Sub-Juniors,SBD,Single-ply
4,56,M,Carter Belaberda,1992,55.98,Canada,192.5,202.5,210,210,-135,135,-145,135,107.5,120,-127.5,120,465,Sub-Juniors,SBD,Single-ply
5,56,M,Zafar Akhmedov,1990,55.66,Uzbekistan,-175,175,185,185,100,105,-110,105,155,-170,-170,155,445,Sub-Juniors,SBD,Single-ply
6,56,M,Noriyoshi Fukaya,1990,54.26,Japan,130,150,-155,150,100,-120,-120,100,150,160,-167.5,160,410,Sub-Juniors,SBD,Single-ply
7,56,M,Yuki Nagane,1991,54.84,Japan,130,145,-155,145,80,90,-95,90,135,-150,-150,135,370,Sub-Juniors,SBD,Single-ply
DQ,56,M,Turki Al Tamimi,1990,55,Oman,-185,-190,-190,,50,60,-65,60,175,182.5,-190,182.5,,Sub-Juniors,SBD,Single-ply
DQ,56,M,Oleksandr Gryshin,1991,55.06,Ukraine,190,200,-205,200,-100,-100,-100,,180,190,-192.5,190,,Sub-Juniors,SBD,Single-ply
1,60,M,Oleksandr Liyvoy,1990,59.58,Ukraine,190,205,-212.5,205,135,142.5,-150,142.5,200,212.5,-225,212.5,560,Sub-Juniors,SBD,Single-ply
2,60,M,Vichet Duong,1993,59.34,France,215,222.5,-232.5,222.5,100,110,-115,110,210,222.5,-227.5,222.5,555,Sub-Juniors,SBD,Single-ply
3,60,M,Dmitriy Kozlov,1990,59.84,Russia,-190,190,-200,190,120,127.5,130,130,190,-205,205,205,525,Sub-Juniors,SBD,Single-ply
4,60,M,Tsung-Lin Wu,1990,60,Taiwan,160,170,-177.5,170,95,-102.5,102.5,102.5,205,215,-225,215,487.5,Sub-Juniors,SBD,Single-ply
5,60,M,Doble Kieran,1992,56.4,UK,135,-145,-145,135,60,-67.5,-67.5,60,145,-152.5,-152.5,145,340,Sub-Juniors,SBD,Single-ply
DQ,60,M,Nicholas Stevenson,1990,59.92,USA,-197.5,197.5,205,205,-117.5,117.5,122.5,122.5,-197.5,-197.5,-197.5,,,Sub-Juniors,SBD,Single-ply
1,67.5,M,Yoshito Nishimura,1990,66.8,Japan,215,-222.5,222.5,222.5,140,-152.5,-157.5,140,215,225,230,230,592.5,Sub-Juniors,SBD,Single-ply
2,67.5,M,Sergiy Rybalko,1990,67.1,Ukraine,-225,-230,230,230,130,-137.5,-137.5,130,205,215,-230,215,575,Sub-Juniors,SBD,Single-ply
3,67.5,M,Toru Ashihara,1990,65.96,Japan,-190,205,-215,205,125,135,-140,135,215,-225,-225,215,555,Sub-Juniors,SBD,Single-ply
4,67.5,M,Viktor Vaško,1991,67.5,Slovakia,185,200,-210,200,110,115,120,120,185,195,-202.5,195,515,Sub-Juniors,SBD,Single-ply
5,67.5,M,Kgotso Leepile,1992,63.12,South Africa,175,185,-195,185,85,-90,-90,85,140,150,-157.5,150,420,Sub-Juniors,SBD,Single-ply
6,67.5,M,Marco Rodrigues Barbosa,1990,66.06,Brazil,155,-170,-170,155,87.5,95,-100,95,150,162.5,-172.5,162.5,412.5,Sub-Juniors,SBD,Single-ply
DQ,67.5,M,Deon Smit,1991,67.5,South Africa,-165,-165,-165,,75,-85,85,85,155,165,172.5,172.5,,Sub-Juniors,SBD,Single-ply
DD,67.5,M,Stephen Rios,1990,66.42,USA,-220,220,225,225,120,127.5,-130,127.5,227.5,235,240,240,,Sub-Juniors,SBD,Single-ply
1,75,M,Aimar Kuusnömm,1990,72.26,Estonia,245,255,260,260,170,177.5,-182.5,177.5,260,265,-270,265,702.5,Sub-Juniors,SBD,Single-ply
2,75,M,Anton Lazarev,1990,74.58,Russia,265,275,282.5,282.5,145,152.5,155,155,245,262.5,-267.5,262.5,700,Sub-Juniors,SBD,Single-ply
3,75,M,Sarel Pretoruis,1990,73.4,South Africa,220,-230,-240,220,140,-155,155,155,235,240,-245,240,615,Sub-Juniors,SBD,Single-ply
4,75,M,Daigoro Kitagawa,1991,74.66,Japan,200,210,215,215,165,-183.5,183.5,183.5,180,195,-217.5,195,593.5,Sub-Juniors,SBD,Single-ply
5,75,M,Lucas Schmidt,1990,73.58,USA,220,-232.5,237.5,237.5,120,127.5,130,130,210,225,-252.5,225,592.5,Sub-Juniors,SBD,Single-ply
6,75,M,Craig Cutler,1991,72.9,UK,200,-215,215,215,115,127.5,135,135,-200,210,-242.5,210,560,Sub-Juniors,SBD,Single-ply
7,75,M,Jacob Oakenfull,1990,74.34,Australia,-180,180,-205,180,117.5,125,-130,125,210,225,-242.5,225,530,Sub-Juniors,SBD,Single-ply
8,75,M,Conraad Dippenaar,1990,74.08,South Africa,165,-175,175,175,107.5,115,-120,115,200,-215,-215,200,490,Sub-Juniors,SBD,Single-ply
DQ,75,M,Gergely Kalmar,1990,72.78,Hungary,-230,-230,-230,,110,145,-155,145,,,,,,Sub-Juniors,SBD,Single-ply
DQ,75,M,Alexander Huber,1990,74.1,Austria,230,237.5,-242.5,237.5,145,-150,-150,145,-230,-230,-230,,,Sub-Juniors,SBD,Single-ply
1,82.5,M,Sergii Bilyi,1990,81.3,Ukraine,270,280,285,285,180,190,195,195,260,270,285,285,765,Sub-Juniors,SBD,Single-ply
2,82.5,M,Maciej Bielski,1990,80.2,Poland,-265,265,-280,265,-135,135,142.5,142.5,240,250,-270,250,657.5,Sub-Juniors,SBD,Single-ply
3,82.5,M,Yuriy Korneev,1990,75.88,Kazakhstan,-240,240,250,250,-125,125,-135,125,240,-250,-250,240,615,Sub-Juniors,SBD,Single-ply
4,82.5,M,Kasper Myllynen,1990,81.89,Finland,205,-215,220,220,-142.5,-142.5,142.5,142.5,-200,200,215,215,577.5,Sub-Juniors,SBD,Single-ply
5,82.5,M,Nicholas Jacobson,1990,82.14,USA,-220,220,-225,220,-140,140,145,145,212.5,-217.5,-217.5,212.5,577.5,Sub-Juniors,SBD,Single-ply
6,82.5,M,Laird Ross,1991,80.2,Australia,160,175,-182.5,175,137.5,145,150,150,180,200,-205,200,525,Sub-Juniors,SBD,Single-ply
7,82.5,M,Kyle Dorfling,1990,78.56,South Africa,175,190,-200,190,110,115,117.5,117.5,190,205,-217.5,205,512.5,Sub-Juniors,SBD,Single-ply
8,82.5,M,Lucian Pekeur,1990,76.76,South Africa,150,165,-175,165,95,-105,105,105,190,210,-227.5,210,480,Sub-Juniors,SBD,Single-ply
1,90,M,Johan Smith,1991,88.6,South Africa,275,305,-310,305,165,172.5,177.5,177.5,240,252.5,-260,252.5,735,Sub-Juniors,SBD,Single-ply
2,90,M,Pat Sutton,1990,89.5,USA,292.5,300,-315,300,177.5,182.5,187.5,187.5,212.5,230,240,240,727.5,Sub-Juniors,SBD,Single-ply
3,90,M,Anton Zaytsev,1990,89.38,Russia,262.5,-280,282.5,282.5,170,180,190,190,-252.5,252.5,-265,252.5,725,Sub-Juniors,SBD,Single-ply
4,90,M,Timothy Parker,1990,88.96,USA,250,265,272.5,272.5,162.5,172.5,177.5,177.5,230,250,-275,250,700,Sub-Juniors,SBD,Single-ply
5,90,M,Martin Kozák,1990,88.66,Czechia,210,222.5,-230,222.5,127.5,132.5,137.5,137.5,222.5,237.5,-247.5,237.5,597.5,Sub-Juniors,SBD,Single-ply
6,90,M,Juan Fourie,1990,85.94,South Africa,195,200,207.5,207.5,130,137.5,-140,137.5,220,230,-235,230,575,Sub-Juniors,SBD,Single-ply
7,90,M,Daniel Taylor,1990,88.9,UK,190,200,-210,200,120,127.5,-132.5,127.5,190,205,220,220,547.5,Sub-Juniors,SBD,Single-ply
8,90,M,Aaron Cooper #2,1990,88.8,UK,200,-210,210,210,120,130,-140,130,200,205,-237.5,205,545,Sub-Juniors,SBD,Single-ply
1,100,M,Rait Sagor,1990,94.52,Estonia,280,295,-305,295,-195,195,-207.5,195,300,-315,-315,300,790,Sub-Juniors,SBD,Single-ply
2,100,M,Landra Lee,1990,91.8,USA,272.5,292.5,310,310,170,182.5,192.5,192.5,252.5,272.5,-287.5,272.5,775,Sub-Juniors,SBD,Single-ply
3,100,M,Ivan Goryachev,1990,99.94,Russia,270,285,-290,285,185,190,195,195,240,255,-275,255,735,Sub-Juniors,SBD,Single-ply
4,100,M,Ying-Da Chen,1990,90.68,Taiwan,240,-260,-270,240,110,115,-120,115,200,210,-225,210,565,Sub-Juniors,SBD,Single-ply
5,100,M,Joseph Walton,1991,94.52,UK,190,-205,210,210,-110,110,-120,110,220,-227.5,-227.5,220,540,Sub-Juniors,SBD,Single-ply
1,110,M,Michael McCoy,1991,101.74,USA,-245,250,262.5,262.5,197.5,205,-207.5,205,275,282.5,290,290,757.5,Sub-Juniors,SBD,Single-ply
2,110,M,Myhaylo Potapenko,1991,107.92,Ukraine,290,300,307.5,307.5,190,-197.5,-197.5,190,247.5,260,-265,260,757.5,Sub-Juniors,SBD,Single-ply
3,110,M,Mateusz Wolowicz,1990,109.96,Poland,270,290,-300,290,185,-195,195,195,250,262.5,-275,262.5,747.5,Sub-Juniors,SBD,Single-ply
4,110,M,Jaakko Ketola,1990,101.32,Finland,245,255,262.5,262.5,-185,185,195,195,270,282.5,-292.5,282.5,740,Sub-Juniors,SBD,Single-ply
5,110,M,Marcin Skowroński,1990,101,Poland,260,280,290,290,155,162.5,-170,162.5,230,240,-247.5,240,692.5,Sub-Juniors,SBD,Single-ply
1,125,M,James Cloe,1990,124.26,USA,305,-331,331,331,210,225,-232.5,225,235,-267.5,-267.5,235,791,Sub-Juniors,SBD,Single-ply
1,125+,M,Adlan Temirsultanov,1990,126.64,Russia,310,330,337.5,337.5,190,200,-210,200,230,250,260,260,797.5,Sub-Juniors,SBD,Single-ply
2,125+,M,Chung-Yi Chiu,1991,139.3,Taiwan,250,265,-270,265,130,140,150,150,210,232.5,-252.5,232.5,647.5,Sub-Juniors,SBD,Single-ply
1,44,F,Marina Poduzova,1985,43.84,Russia,130,135,142.5,142.5,70,75,77.5,77.5,130,142.5,147.5,147.5,367.5,Juniors,SBD,Single-ply
2,44,F,Daniela Da Silva,1985,43.64,Brazil,115,120,-125,120,52.5,55,-57.5,55,125,130,132.5,132.5,307.5,Juniors,SBD,Single-ply
3,44,F,Miriam Bustamante,1985,42.58,Ecuador,115,-120,-122.5,115,52.5,55,-57.5,55,122.5,127.5,-135,127.5,297.5,Juniors,SBD,Single-ply
4,44,F,Alesha Summers,1988,42.94,USA,92.5,97.5,-102.5,97.5,-52.5,52.5,57.5,57.5,95,105,115,115,270,Juniors,SBD,Single-ply
5,44,F,Yuki Nakamura,1987,40.14,Japan,-77.5,77.5,82.5,82.5,45,-52.5,-52.5,45,87.5,95,100,100,227.5,Juniors,SBD,Single-ply
1,48,F,Oksana Pochinkina-Sokovnina,1986,47.88,Russia,145,150,155,155,100,105,107.5,107.5,-135,135,142.5,142.5,405,Juniors,SBD,Single-ply
2,48,F,Anastasiya Roschina,1988,47.74,Russia,135,142.5,150,150,70,75,80,80,125,135,-140,135,365,Juniors,SBD,Single-ply
3,48,F,Yu Inoue,1988,46.66,Japan,115,125,-140,125,75,85,-90,85,115,125,-130,125,335,Juniors,SBD,Single-ply
4,48,F,Nethravathi Vishwanath,1986,47.9,India,-100,105,-115,105,50,55,60,60,110,120,-137.5,120,285,Juniors,SBD,Single-ply
5,48,F,Mutsumi Kaneko,1986,46.38,Japan,110,-125,-125,110,52.5,-57.5,57.5,57.5,90,-100,-100,90,257.5,Juniors,SBD,Single-ply
1,52,F,Chia-Yu Lee,1987,51.1,Taiwan,140,145,150,150,-85,85,90,90,165,170,175,175,415,Juniors,SBD,Single-ply
2,52,F,Mailebis Oquendo,1987,50.5,Venezuela,-155,155,165,165,75,80,-82.5,80,150,160,-165,160,405,Juniors,SBD,Single-ply
3,52,F,Irani Barbosa,1986,51.84,Brazil,142.5,150,-155,150,72.5,77.5,-80,77.5,130,140,147.5,147.5,375,Juniors,SBD,Single-ply
4,52,F,Yoshiko Muto,1987,48.2,Japan,100,110,-115,110,60,65,67.5,67.5,105,115,-122.5,115,292.5,Juniors,SBD,Single-ply
DQ,52,F,Maki Ishimaru,1987,50.2,Japan,-105,105,-112.5,105,-70,-70,-70,,-90,90,100,100,,Juniors,SBD,Single-ply
DQ,52,F,Elina Auvinen,1989,51.62,Finland,-135,-135,-135,,62.5,-67.5,-67.5,62.5,125,-137.5,-137.5,125,,Juniors,SBD,Single-ply
DQ,52,F,Jayna van de Voort,1989,51.64,USA,137.5,142.5,-145,142.5,-77.5,-77.5,-77.5,,137.5,142.5,145,145,,Juniors,SBD,Single-ply
1,56,F,Jenna Farek,1985,55.04,USA,-150,150,157.5,157.5,77.5,85,90,90,150,157.5,-160,157.5,405,Juniors,SBD,Single-ply
2,56,F,Ekaterina Kazakova,1988,55.8,Russia,-165,165,-175,165,90,-95,95,95,140,145,-147.5,145,405,Juniors,SBD,Single-ply
3,56,F,Adriana Cuta,1986,54.2,Venezuela,145,155,160,160,-75,75,77.5,77.5,165,-170,-170,165,402.5,Juniors,SBD,Single-ply
4,56,F,Emmanuelle Jaworski,1989,55.26,France,135,-142.5,-142.5,135,62.5,67.5,-70,67.5,-110,125,140,140,342.5,Juniors,SBD,Single-ply
5,56,F,Misato Okamura,1988,53.26,Japan,120,130,140,140,80,-87.5,-87.5,80,-120,120,-132.5,120,340,Juniors,SBD,Single-ply
6,56,F,Machiko Nagasu,1985,54.14,Japan,112.5,-125,125,125,57.5,-62.5,62.5,62.5,120,140,145,145,332.5,Juniors,SBD,Single-ply
7,56,F,Tiina Salo,1988,55.34,Finland,-115,115,-125,115,-82.5,82.5,-90,82.5,120,127.5,-132.5,127.5,325,Juniors,SBD,Single-ply
DQ,56,F,Angelica Brage,1987,54.82,Sweden,-155,-155,-155,,80,85,-90,85,155,160,-170,160,,Juniors,SBD,Single-ply
1,60,F,Tetyana Melnyk,1985,59.42,Ukraine,180,195,-205,195,105,115,120,120,175,-185,185,185,500,Juniors,SBD,Single-ply
2,60,F,Tutta Kristine Hanssen,1989,59,Norway,157.5,162.5,167.5,167.5,105,110,112.5,112.5,155,165,170,170,450,Juniors,SBD,Single-ply
3,60,F,Yana Krivorotova,1988,59.02,Russia,165,175,-185,175,80,85,90,90,150,160,-165,160,425,Juniors,SBD,Single-ply
4,60,F,Odile Collard,1986,59.32,France,157.5,162.5,-165,162.5,-75,75,82.5,82.5,160,170,172.5,172.5,417.5,Juniors,SBD,Single-ply
5,60,F,Henna Siirilä,1986,59.62,Finland,147.5,155,160,160,-90,90,-95,90,150,157.5,167.5,167.5,417.5,Juniors,SBD,Single-ply
6,60,F,Katie Van Dusen,1988,56.1,USA,140,150,160,160,82.5,-90,90,90,140,150,155,155,405,Juniors,SBD,Single-ply
7,60,F,Adriana DaCosta,1986,59.12,USA,-137.5,137.5,142.5,142.5,-75,75,82.5,82.5,140,147.5,-155,147.5,372.5,Juniors,SBD,Single-ply
8,60,F,Silmara Cunha Silva,1989,56.12,Brazil,120,135,-140,135,67.5,72.5,-75,72.5,105,125,-130,125,332.5,Juniors,SBD,Single-ply
1,67.5,F,Yulia Medvedeva,1986,65.22,Russia,210,215,220,220,135,,,135,170,185,190,190,545,Juniors,SBD,Single-ply
2,67.5,F,Pamela Bartz,1987,66.82,USA,175,185,-195,185,95,102.5,-107.5,102.5,177.5,-187.5,-192.5,177.5,465,Juniors,SBD,Single-ply
3,67.5,F,Magdalena Jablonska,1985,66.98,Poland,190,-200,-200,190,85,90,-92.5,90,150,160,-170,160,440,Juniors,SBD,Single-ply
4,67.5,F,Veronica Opdal,1985,64.28,Norway,152.5,157.5,160,160,87.5,-90,-90,87.5,157.5,162.5,-165,162.5,410,Juniors,SBD,Single-ply
5,67.5,F,Yuka Kuroyanagi,1987,60.6,Japan,125,-135,-135,125,80,-90,90,90,145,155,-160,155,370,Juniors,SBD,Single-ply
6,67.5,F,Louise Watton,1986,63.88,UK,110,120,125,125,72.5,77.5,82.5,82.5,140,150,-165,150,357.5,Juniors,SBD,Single-ply
7,67.5,F,Cene Petit,1986,65.8,South Africa,-135,135,-145,135,-60,60,-67.5,60,120,125,-127.5,125,320,Juniors,SBD,Single-ply
DQ,67.5,F,Yenifer Canelón,1987,64.14,Venezuela,-175,-175,-175,,90,95,100,100,180,185,-187.5,185,,Juniors,SBD,Single-ply
1,75,F,Maria Gulidova,1989,68.14,Russia,190,197.5,205,205,110,115,120,120,170,180,185,185,510,Juniors,SBD,Single-ply
2,75,F,Maria Malla,1988,67.64,Ecuador,180,190,197.5,197.5,-87.5,87.5,92.5,92.5,180,190,-195,190,480,Juniors,SBD,Single-ply
3,75,F,Ekaterina Kryukova,1985,68.12,Kazakhstan,-170,170,-180,170,105,110,115,115,170,-180,-180,170,455,Juniors,SBD,Single-ply
4,75,F,Lucia Christensen,1985,71.54,Sweden,-165,165,-175,165,102.5,107.5,-112.5,107.5,155,170,-175,170,442.5,Juniors,SBD,Single-ply
5,75,F,Megumi Mano,1985,73.54,Japan,125,137.5,-145,137.5,75,80,85,85,125,135,-145,135,357.5,Juniors,SBD,Single-ply
6,75,F,Natasha Armstrong,1989,68.66,New Zealand,-140,140,150,150,70,75,-80,75,130,-145,-155,130,355,Juniors,SBD,Single-ply
DQ,75,F,Gloria Moses,1989,69.04,Nigeria,160,170,180,180,-80,-80,-80,,165,172.5,180,180,,Juniors,SBD,Single-ply
1,82.5,F,Lyudmila Protchenko,1986,75.52,Russia,225,,,225,-130,130,,130,165,170,,170,525,Juniors,SBD,Single-ply
2,82.5,F,Tiffany McKinney,1989,79.1,USA,162.5,170,175,175,137.5,142.5,145,145,155,165,172.5,172.5,492.5,Juniors,SBD,Single-ply
3,82.5,F,Sandra Sebastien,1986,81.1,USA,175,180,-187.5,180,87.5,95,100,100,182.5,192.5,197.5,197.5,477.5,Juniors,SBD,Single-ply
4,82.5,F,Yana Shkarupa,1986,81.64,Russia,170,180,190,190,-115,115,117.5,117.5,160,170,-175,170,477.5,Juniors,SBD,Single-ply
5,82.5,F,Malwina Ciesielska,1988,78.56,Poland,145,160,-170,160,90,95,100,100,140,150,-155,150,410,Juniors,SBD,Single-ply
6,82.5,F,Rachel Cork,1986,79.44,UK,135,145,150,150,75,80,-82.5,80,147.5,-160,-160,147.5,377.5,Juniors,SBD,Single-ply
7,82.5,F,Kazuyo Isogai,1986,77.92,Japan,110,120,-125,120,50,62.5,-70,62.5,-105,105,-117.5,105,287.5,Juniors,SBD,Single-ply
1,90,F,Elizabeth Arnold,1986,89.48,USA,-192.5,192.5,202.5,202.5,102.5,107.5,110,110,180,187.5,192.5,192.5,505,Juniors,SBD,Single-ply
2,90,F,Raelene Marion,1986,86.96,Canada,195,-202.5,-202.5,195,-135,135,-137.5,135,160,167.5,172.5,172.5,502.5,Juniors,SBD,Single-ply
3,90,F,Ágnes Szabó,1988,89.68,Hungary,150,-170,180,180,130,142.5,145,145,140,150,-155,150,475,Juniors,SBD,Single-ply
4,90,F,Kamini Kamra,1986,89.76,India,-90,90,100,100,55,60,65,65,105,115,120,120,285,Juniors,SBD,Single-ply
1,90+,F,Olga Gemaletdinova,1986,114.98,Russia,240,-245,,240,130,,,130,-200,200,222.5,222.5,592.5,Juniors,SBD,Single-ply
2,90+,F,Melissa Navarro,1988,115.3,USA,215,227.5,-235,227.5,105,110,-115,110,165,175,187.5,187.5,525,Juniors,SBD,Single-ply
3,90+,F,Tetyana Varlamova,1989,134.92,Ukraine,165,185,-205,185,75,90,-100,90,180,200,225,225,500,Juniors,SBD,Single-ply
4,90+,F,Manjeet Kaur,1988,91.12,India,-170,170,-180,170,115,120,-122.5,120,150,-165,-165,150,440,Juniors,SBD,Single-ply
DQ,90+,F,Anita Millington,1986,132.32,Australia,175,185,-192.5,185,-122.5,-125,-125,,-162.5,162.5,177.5,177.5,,Juniors,SBD,Single-ply
