Name,Place,Division,Sex,Equipment,WeightClassKg,BodyweightKg,Age,Best3SquatKg,Best3BenchKg,Bench4Kg,Best3DeadliftKg,Deadlift4Kg,TotalKg,Event
Nicole Stevens,1,Juniors 16-17,F,Raw,56,55.97,17,70,42.5,,105,,217.5,SBD
Christine Na,DQ,Juniors 20-23,F,Raw,67.5,60.06,22,105,-62.5,,,,,SBD
Jes Sherman,1,Open,F,Raw,60,58.33,26,85,45,,115,,245,SBD
Margarita Salas,1,Masters 50-54,F,Raw,82.5,75.84,50,72.5,42.5,,102.5,,217.5,SBD
Carson Mackie,1,Juniors 18-19,M,Raw,67.5,61.6,18,80,65,,150,,295,SBD
Richard Stevens,DQ,Juniors 18-19,M,Raw,75,73.3,19,107.5,102.5,,-145,,,SBD
Race Engbar,1,Open,M,Raw,75,73.03,22,172.5,95,,227.5,,495,SBD
Roger Ngo,1,Juniors 20-23,M,Raw,82.5,79.11,22,137.5,102.5,,160,,400,SBD
Ian Fisher,2,Juniors 20-23,M,Raw,82.5,80.74,20,125,87.5,,175,,387.5,SBD
Steve Melero,1,Open,M,Raw,82.5,81.47,30,205,137.5,,250,,592.5,SBD
Harley Hatfield,2,Open,M,Raw,82.5,77.38,19,165,135,,192.5,,492.5,SBD
Mike Claytor,DQ,Open,M,Raw,82.5,81.37,32,-147.5,,,,,,SBD
Henry Becerra,1,Masters 40-44,M,Raw,82.5,81.19,42,195,145,,185,,525,SBD
Nicolas Demarest,1,Juniors 16-17,M,Raw,90,88.36,17,105,95,,152.5,,352.5,SBD
Peter Voong,1,Juniors 20-23,M,Raw,90,88.72,21,160,95,,205,,460,SBD
Michael Rascon,2,Juniors 20-23,M,Raw,90,88.09,20,162.5,100,,187.5,,450,SBD
Nick Conn,1,Open,M,Raw,90,88.63,25,215,130,,260,,605,SBD
Humberto Gonzalez Jr,2,Open,M,Raw,90,88.18,32,182.5,160,,237.5,,580,SBD
Onatome Tasker,3,Open,M,Raw,90,86.09,23,185,125,,260,,570,SBD
John Sanchez #3,4,Open,M,Raw,90,89.36,27,185,142.5,,200,,527.5,SBD
Joshua Hyman,1,Submasters 35-39,M,Raw,90,88.18,37,150,117.5,,200,,467.5,SBD
Michael Brown,1,Masters 50-54,M,Raw,90,87.54,51,152.5,107.5,,175,,435,SBD
Jack Sharkey,1,Juniors 20-23,M,Raw,100,95.21,20,165,115,,192.5,,472.5,SBD
Jason Seidman,1,Open,M,Raw,100,98.97,26,210,190,,282.5,292.5,682.5,SBD
Chris Finley,2,Open,M,Raw,100,99.16,38,187.5,165,,212.5,,565,SBD
Emmanuel Hernandez #2,1,Juniors 18-19,M,Raw,110,105.32,19,182.5,137.5,,227.5,,547.5,SBD
Lucas Rascon,2,Juniors 18-19,M,Raw,110,108.5,19,157.5,117.5,,182.5,,457.5,SBD
Craig Smith,1,Juniors 20-23,M,Raw,110,104.33,22,182.5,130,,200,,512.5,SBD
Wayne Jandoc,1,Masters 50-54,M,Raw,110,106.68,54,227.5,155,,250,,632.5,SBD
Kros Andrade,1,Masters 40-44,M,Wraps,125,117.84,40,155,102.5,,182.5,,440,SBD
Karen Parnow,1,Masters 50-54,F,Single-ply,67.5,65.41,54,112.5,87.5,,132.5,,332.5,SBD
Betsy Spann,1,Masters 55-59,F,Single-ply,67.5,66.5,55,102.5,65,,127.5,,295,SBD
Martha King,1,Masters 45-49,F,Single-ply,75,68.95,49,87.5,47.5,,110,,245,SBD
Bob Kinsey,1,Masters 70-74,M,Single-ply,90,89.09,70,145,97.5,,165,,407.5,SBD
Josh Clinard,1,Open,M,Single-ply,100,93.35,28,327.5,205,,240,,772.5,SBD
Chris Bartl,DQ,Open,M,Single-ply,100,99.97,34,-277.5,,,,,,SBD
Dave Dallmeyer,1,Masters 60-64,M,Single-ply,140,138.35,63,202.5,140,,237.5,,580,SBD
Gerrie Shapiro,1,Masters 55-59,F,Raw,56,53.89,59,,42.5,,,,42.5,B
Judy Camsuzou,1,Open,F,Raw,67.5,67.4,44,,97.5,,,,97.5,B
Judy Camsuzou,1,Masters 40-44,F,Raw,67.5,67.4,44,,97.5,,,,97.5,B
Ruth Harrison,1,Masters 45-49,F,Raw,75,72.48,47,,80,80.5,,,80,B
James Welsh,1,Open,M,Raw,75,74.57,32,,102.5,,,,102.5,B
Derrick Mackinga,1,Open,M,Raw,100,96.89,32,,157.5,,,,157.5,B
Tony Lewelling,1,Masters 50-54,M,Raw,100,97.7,53,,187.5,,,,187.5,B
Tina Santilli,1,Masters 45-49,F,Raw,60,59.24,49,,,,75,,75,D
Christine Na,1,Juniors 20-23,F,Raw,67.5,60.06,22,,,,115,,115,D
Lynne Castellanos,1,Masters 50-54,F,Raw,75,70.67,52,,,,125.5,,125.5,D
James Guerra,1,Open,M,Raw,82.5,80.47,33,,,,197.5,,197.5,D
Jason Seidman,1,Open,M,Raw,100,98.97,26,,,,282.5,292.5,282.5,D
Robert Galli,2,Open,M,Raw,100,99.25,25,,,,237.5,,237.5,D
Mario Reynoso,1,Open,M,Raw,140,134.9,36,,,,227.5,,227.5,D
Bob Kinsey,1,Masters 70-74,M,Single-ply,90,89.09,70,,,,165,,165,D
Kevin Fisher,1,Masters 55-59,M,Single-ply,100,98.52,57,,,,300,,300,D
Alaina Young,1,Juniors 13-15,F,Raw,75,73.57,15,,40,,75,,115,BD
Josh Moore,1,Juniors 20-23,M,Raw,75,70.94,20,,115,,160,,275,BD
Mike Claytor,1,Open,M,Raw,82.5,81.37,32,,110,,205,,315,BD
Buck Drew,1,Open,M,Raw,100,98.61,40,,175,,230,,405,BD
Buck Drew,1,Masters 40-44,M,Raw,100,98.61,40,,175,,230,,405,BD
Eric Manfredonia,1,Open,M,Raw,110,109.04,28,,175,,250,,425,BD
Karen Parnow,1,Masters 50-54,F,Single-ply,67.5,65.41,54,,87.5,,132.5,,220,BD
Betsy Spann,1,Masters 55-59,F,Single-ply,67.5,66.5,55,,65,,127.5,,192.5,BD
Martha King,1,Masters 45-49,F,Single-ply,75,68.95,49,,47.5,,110,,157.5,BD
John Dorsten,DQ,Open,M,Single-ply,82.5,82.33,42,,-195,,287.5,,,BD
John Dorsten,DQ,Masters 40-44,M,Single-ply,82.5,82.33,42,,-195,,287.5,,,BD
Chris Bartl,DQ,Open,M,Single-ply,100,99.97,34,,217.5,,-265,,,BD
